{
  "name": "TestDataSuccessNumbers0001",
  "description": "",
  "status": "visible",
  "tc": {
    "settings": [],
    "actors": [
      {
        "name": "Actors-global.engine.actors.test-data.TestDataSuccessLocal",
        "type": "local",
        "phase": "",
        "execution": "",
        "src": "",
        "dst": "",
        "srv": "",
        "testData": ""
      }
    ],
    "testDataTestCases": [
      {
        "key": "method",
        "value": "getTestDataNumbers",
        "description": ""
      },
      {
        "key": "data[]",
        "value": "1",
        "description": ""
      },
      {
        "key": "data[]",
        "value": "2",
        "description": ""
      }
    ],
    "testDataIteration": [],
    "verificationTestCases": [
      {
        "key": "testData",
        "value": "[1, 2]",
        "operation": "",
        "type": "[number]",
        "description": ""
      }
    ]
  }
}