{
  "name": "EmptyCond001",
  "description": "",
  "status": "visible",
  "tc": {
    "settings": [],
    "actors": [
      {
        "name": "Actors-global.engine.actors.empty.NoneCond",
        "type": "cond",
        "phase": "",
        "address": "",
        "execution": ""
      }
    ],
    "testDataTestCases": [],
    "verificationTestCases": []
  }
}