{
  "name": "ThrowRunLocal",
  "description": "",
  "status": "visible",
  "tc": {
    "settings": [
      {
        "preResult": "",
        "execResult": "error",
        "postResult": ""
      }
    ],
    "actors": [
      {
        "name": "Actors-global.engine.actors.empty.EmptyVerifyActorStatesInitLocal",
        "type": "local",
        "phase": "pre",
        "execution": "",
        "src": "",
        "dst": "",
        "srv": "",
        "testData": "",
        "verification": ""
      },
      {
        "name": "Actors-global.engine.actors.throw.ThrowLocal",
        "type": "local",
        "phase": "",
        "execution": "",
        "src": "",
        "dst": "",
        "srv": "",
        "testData": "",
        "verification": ""
      },
      {
        "name": "Actors-global.engine.actors.empty.EmptyVerifyActorStatesLocal",
        "type": "local",
        "phase": "post",
        "execution": "",
        "src": "",
        "dst": "",
        "srv": "",
        "testData": "",
        "verification": ""
      }
    ],
    "testDataTestCases": [
      {
        "key": "tc__staticData",
        "value": "true",
        "description": ""
      },
      {
        "key": "throwState",
        "value": "run",
        "description": ""
      }
    ],
    "testDataIteration": [],
    "verificationTestCases": [
      {
        "key": "stateControl[]",
        "value": "[1, 0, 0, 1, 0]",
        "operation": "",
        "type": "[number]",
        "description": ""
      }
    ]
  }
}