{
  "name": "DocActorApiGetTestDataBooleanA",
  "description": "",
  "status": "visible",
  "tc": {
    "settings": [],
    "actors": [
      {
        "name": "Actors-global.doc.testData.getBooleans.GetTestDataBooleanAOrig",
        "type": "orig",
        "phase": "",
        "execution": "",
        "src": "",
        "dst": "",
        "srv": "",
        "testData": "",
        "verification": ""
      }
    ],
    "testDataTestCases": [
      {
        "key": "demoKey1",
        "value": "true",
        "description": ""
      },
      {
        "key": "demoKey2",
        "value": "false",
        "description": ""
      },
      {
        "key": "demoKeyObject",
        "value": "TRUTH",
        "description": ""
      }
    ],
    "testDataIteration": [],
    "verificationTestCases": []
  }
}