{
  "name": "StackDiameterCxAll",
  "description": "",
  "status": "visible",
  "ts": {
    "abstractions": [
      {
        "name": "tc.Actor.StackDiameterCx.StackDiameterCxUserAuthorization",
        "execution": "",
        "iterations": ""
      }
    ]
  }
}