{
  "name": "DocActorApiVerifyOptionalUSuccess",
  "description": "",
  "status": "visible",
  "tc": {
    "settings": [],
    "actors": [
      {
        "name": "Actors-global.doc.verificationData.verifyOptional.VerifyOptionalUSuccessLocal",
        "type": "local",
        "phase": "exec",
        "execution": "",
        "src": "",
        "dst": "",
        "srv": "",
        "testData": "",
        "verification": ""
      }
    ],
    "testDataTestCases": [],
    "testDataIteration": [],
    "verificationTestCases": [
      {
        "key": "demoKey1",
        "value": "[[\"Hello\", \"Hi\"], [\"Bye\", \"Later\"]]",
        "operation": "",
        "type": "[[string]]",
        "description": ""
      },
      {
        "key": "demoKey2[]",
        "value": "[\"Hello\", \"Hi\"]",
        "operation": "",
        "type": "[string]",
        "description": ""
      },
      {
        "key": "demoKey2[]",
        "value": "[\"Bye\", \"Later\"]",
        "operation": "",
        "type": "[string]",
        "description": ""
      },
      {
        "key": "demoKey3",
        "value": "[[1, 2], [5, 6]]",
        "operation": "",
        "type": "[[number]]",
        "description": ""
      },
      {
        "key": "demoKey4[]",
        "value": "[1, 2]",
        "operation": "",
        "type": "[number]",
        "description": ""
      },
      {
        "key": "demoKey4[]",
        "value": "[5, 6]",
        "operation": "",
        "type": "[number]",
        "description": ""
      },
      {
        "key": "demoKey5",
        "value": "[[3, 4], [7, 8]]",
        "operation": ">",
        "type": "[[number]]",
        "description": ""
      },
      {
        "key": "demoKey6[]",
        "value": "[3, 4]",
        "operation": "<",
        "type": "[number]",
        "description": ""
      },
      {
        "key": "demoKey6[]",
        "value": "[7, 8]",
        "operation": ">",
        "type": "[number]",
        "description": ""
      },
      {
        "key": "demoKey7",
        "value": "[[true, true], [false, false]]",
        "operation": "",
        "type": "[[boolean]]",
        "description": ""
      },
      {
        "key": "demoKey8[]",
        "value": "[true, true]",
        "operation": "",
        "type": "[boolean]",
        "description": ""
      },
      {
        "key": "demoKey8[]",
        "value": "[false, false]",
        "operation": "",
        "type": "[boolean]",
        "description": ""
      }
    ]
  }
}