{
  "name": "EngineActorPartFailure",
  "description": "",
  "status": "visible",
  "ts": {
    "abstractions": [
      {
        "name": "tc.Actor.EngineActorPart.FauilureOnePreLocal",
        "execution": "",
        "iterations": ""
      },
      {
        "name": "tc.Actor.EngineActorPart.FauilureOnePreOrig",
        "execution": "",
        "iterations": ""
      },
      {
        "name": "tc.Actor.EngineActorPart.FauilureOnePreProxy",
        "execution": "",
        "iterations": ""
      },
      {
        "name": "tc.Actor.EngineActorPart.FauilureOnePreTerm",
        "execution": "",
        "iterations": ""
      },
      {
        "name": "tc.Actor.EngineActorPart.FailureSeveralPreFirstLocal",
        "execution": "",
        "iterations": ""
      },
      {
        "name": "tc.Actor.EngineActorPart.FailureSeveralPreFirstOrig",
        "execution": "",
        "iterations": ""
      },
      {
        "name": "tc.Actor.EngineActorPart.FailureSeveralPreFirstProxy",
        "execution": "",
        "iterations": ""
      },
      {
        "name": "tc.Actor.EngineActorPart.FailureSeveralPreFirstTerm",
        "execution": "",
        "iterations": ""
      },
      {
        "name": "tc.Actor.EngineActorPart.FailureSeveralPreSecondLocal",
        "execution": "",
        "iterations": ""
      },
      {
        "name": "tc.Actor.EngineActorPart.FailureSeveralPreSecondOrig",
        "execution": "",
        "iterations": ""
      },
      {
        "name": "tc.Actor.EngineActorPart.FailureSeveralPreSecondProxy",
        "execution": "",
        "iterations": ""
      },
      {
        "name": "tc.Actor.EngineActorPart.FailureSeveralPreSecondTerm",
        "execution": "",
        "iterations": ""
      },
      {
        "name": "tc.Actor.EngineActorPart.FailureSeveralPreLastLocal",
        "execution": "",
        "iterations": ""
      },
      {
        "name": "tc.Actor.EngineActorPart.FailureSeveralPreLastOrig",
        "execution": "",
        "iterations": ""
      },
      {
        "name": "tc.Actor.EngineActorPart.FailureSeveralPreLastProxy",
        "execution": "",
        "iterations": ""
      },
      {
        "name": "tc.Actor.EngineActorPart.FailureSeveralPreLastTerm",
        "execution": "",
        "iterations": ""
      },
      {
        "name": "tc.Actor.EngineActorPart.FauilureOnePostLocal",
        "execution": "",
        "iterations": ""
      },
      {
        "name": "tc.Actor.EngineActorPart.FauilureOnePostOrig",
        "execution": "",
        "iterations": ""
      },
      {
        "name": "tc.Actor.EngineActorPart.FauilureOnePostProxy",
        "execution": "",
        "iterations": ""
      },
      {
        "name": "tc.Actor.EngineActorPart.FauilureOnePostTerm",
        "execution": "",
        "iterations": ""
      },
      {
        "name": "tc.Actor.EngineActorPart.FailureSeveralPostFirstLocal",
        "execution": "",
        "iterations": ""
      },
      {
        "name": "tc.Actor.EngineActorPart.FailureSeveralPostFirstOrig",
        "execution": "",
        "iterations": ""
      },
      {
        "name": "tc.Actor.EngineActorPart.FailureSeveralPostFirstProxy",
        "execution": "",
        "iterations": ""
      },
      {
        "name": "tc.Actor.EngineActorPart.FailureSeveralPostFirstTerm",
        "execution": "",
        "iterations": ""
      },
      {
        "name": "tc.Actor.EngineActorPart.FailureSeveralPostFirstLocal",
        "execution": "",
        "iterations": ""
      },
      {
        "name": "tc.Actor.EngineActorPart.FailureSeveralPostFirstOrig",
        "execution": "",
        "iterations": ""
      },
      {
        "name": "tc.Actor.EngineActorPart.FailureSeveralPostFirstProxy",
        "execution": "",
        "iterations": ""
      },
      {
        "name": "tc.Actor.EngineActorPart.FailureSeveralPostFirstTerm",
        "execution": "",
        "iterations": ""
      },
      {
        "name": "tc.Actor.EngineActorPart.FailureSeveralPostSecondLocal",
        "execution": "",
        "iterations": ""
      },
      {
        "name": "tc.Actor.EngineActorPart.FailureSeveralPostSecondOrig",
        "execution": "",
        "iterations": ""
      },
      {
        "name": "tc.Actor.EngineActorPart.FailureSeveralPostSecondProxy",
        "execution": "",
        "iterations": ""
      },
      {
        "name": "tc.Actor.EngineActorPart.FailureSeveralPostSecondTerm",
        "execution": "",
        "iterations": ""
      },
      {
        "name": "tc.Actor.EngineActorPart.FailureSeveralPostLastLocal",
        "execution": "",
        "iterations": ""
      },
      {
        "name": "tc.Actor.EngineActorPart.FailureSeveralPostLastOrig",
        "execution": "",
        "iterations": ""
      },
      {
        "name": "tc.Actor.EngineActorPart.FailureSeveralPostLastProxy",
        "execution": "",
        "iterations": ""
      },
      {
        "name": "tc.Actor.EngineActorPart.FailureSeveralPostLastTerm",
        "execution": "",
        "iterations": ""
      }
    ]
  }
}