{
  "name": "DemoTestData001",
  "description": "",
  "status": "visible",
  "tc": {
    "settings": [],
    "actors": [
      {
        "name": "Actors-global.demo.testData.DemoTestDataLocal",
        "type": "local",
        "phase": "exec",
        "execution": "",
        "src": "",
        "dst": "",
        "srv": "",
        "testData": "[[\"DemoActor\", \"This test data is taken from the Actor table.\"], [\"DemoName\", \"Olle\"], [\"DemoActorNumber\", 1234]]"
      }
    ],
    "testDataTestCases": [
      {
        "key": "DemoTestCase",
        "value": "This test data is taken from the TestDataTestCase table.",
        "description": "..."
      },
      {
        "key": "DemoFormat",
        "value": "Hej $[DemoName]!",
        "description": ""
      },
      {
        "key": "DemoTestCaseNumber",
        "value": "443.443",
        "description": ""
      }
    ],
    "testDataIteration": [
      {
        "phase": "exec",
        "type": "local",
        "key": "DemoActors",
        "value": "This test data is taken from the TestDataActor table.",
        "description": "..."
      },
      {
        "phase": "exec",
        "type": "local",
        "key": "DemoActorsNumber",
        "value": "1234.1234",
        "description": "..."
      }
    ],
    "verificationTestCases": []
  }
}