{
  "name": "StackSomeIpAll",
  "description": "",
  "status": "visible",
  "ts": {
    "abstractions": [
      {
        "name": "ts.Actor.StackSomeIp.StackSomeIpBasic",
        "execution": "",
        "iterations": ""
      }
    ]
  }
}