[
  {
    "addressName": "testSrc1",
    "interfaceName": "actor1",
    "sut": "Actor",
    "labId": "",
    "userId": "",
    "port": "",
    "browser": "",
    "incognitoBrowser": ""
  },
  {
    "addressName": "testSrc2",
    "interfaceName": "actor2",
    "sut": "Actor",
    "labId": "",
    "userId": "",
    "port": "",
    "browser": "",
    "incognitoBrowser": ""
  },
  {
    "addressName": "testSrc3",
    "interfaceName": "actor3",
    "sut": "Actor",
    "labId": "",
    "userId": "",
    "port": "",
    "browser": "",
    "incognitoBrowser": ""
  },
  {
    "addressName": "testBrowser1",
    "interfaceName": "actorjs-browser01",
    "sut": "ActorJs",
    "labId": "",
    "userId": "",
    "port": "",
    "browser": "b1",
    "incognitoBrowser": ""
  },
  {
    "addressName": "testIncognitoBrowser1",
    "interfaceName": "actorjs-browser01",
    "sut": "ActorJs",
    "labId": "",
    "userId": "",
    "port": "",
    "browser": "b1",
    "incognitoBrowser": "c1"
  },
  {
    "addressName": "actorJsSrc1",
    "interfaceName": "actorjs-01",
    "sut": "ActorJs",
    "labId": "",
    "userId": "",
    "port": "",
    "browser": "",
    "incognitoBrowser": ""
  },
  {
    "addressName": "testSrc1",
    "interfaceName": "actor1",
    "sut": "ActorSut",
    "labId": "",
    "userId": "",
    "port": "",
    "browser": "",
    "incognitoBrowser": ""
  },
  {
    "addressName": "loginClient",
    "interfaceName": "login",
    "sut": "ImageService",
    "labId": "",
    "userId": "",
    "port": "",
    "browser": "",
    "incognitoBrowser": ""
  },
  {
    "addressName": "imageClient",
    "interfaceName": "image",
    "sut": "ImageService",
    "labId": "",
    "userId": "",
    "port": "",
    "browser": "",
    "incognitoBrowser": ""
  },
  {
    "addressName": "src1",
    "interfaceName": "client",
    "sut": "ActorServer",
    "labId": "",
    "userId": "",
    "port": "",
    "browser": "",
    "incognitoBrowser": ""
  }
]