[
  {
    "interfaceName": "client",
    "sut": "ActorClient",
    "labId": "",
    "userId": "",
    "address": "10.8.8.1",
    "netmask": "255.255.0.0",
    "external": "true"
  },
  {
    "interfaceName": "server",
    "sut": "ActorServer",
    "labId": "",
    "userId": "",
    "address": "10.8.0.201",
    "netmask": "255.255.0.0",
    "external": "true"
  }
]