[
  {
    "interfaceName": "actor1",
    "sut": "Actor",
    "type": "ip",
    "networkName": "N1"
  },
  {
    "interfaceName": "actor2",
    "sut": "Actor",
    "type": "ip",
    "networkName": "N1"
  },
  {
    "interfaceName": "actor3",
    "sut": "Actor",
    "type": "ip",
    "networkName": "N1"
  },
  {
    "interfaceName": "actor4",
    "sut": "Actor",
    "type": "ip",
    "networkName": "N1"
  },
  {
    "interfaceName": "actor5",
    "sut": "Actor",
    "type": "ip",
    "networkName": "N1"
  },
  {
    "interfaceName": "multicast11",
    "sut": "Actor",
    "type": "ip",
    "networkName": "N1"
  },
  {
    "interfaceName": "actor21",
    "sut": "Actor",
    "type": "ip",
    "networkName": "N2"
  },
  {
    "interfaceName": "actor22",
    "sut": "Actor",
    "type": "ip",
    "networkName": "N2"
  },
  {
    "interfaceName": "actor31",
    "sut": "Actor",
    "type": "ip",
    "networkName": "N3"
  },
  {
    "interfaceName": "actorjs-1",
    "sut": "ActorJs",
    "type": "gui",
    "networkName": "ActorJs"
  },
  {
    "interfaceName": "actor1",
    "sut": "ActorSut",
    "type": "ip",
    "networkName": "IPv4Network"
  },
  {
    "interfaceName": "login",
    "sut": "ImageService",
    "type": "ip",
    "networkName": "PublicNetwork"
  },
  {
    "interfaceName": "image",
    "sut": "ImageService",
    "type": "ip",
    "networkName": "PublicNetwork"
  },
  {
    "interfaceName": "server",
    "sut": "ActorClient",
    "type": "ip",
    "networkName": "IPv4Network"
  }
]