{
  "name": "DocActorApiGetTestDataArrayBooleansE",
  "description": "",
  "status": "visible",
  "tc": {
    "settings": [],
    "actors": [
      {
        "name": "Actors-global.doc.testData.getBooleans.GetTestDataArrayBooleansEOrig",
        "type": "orig",
        "phase": "",
        "execution": "",
        "src": "",
        "dst": "",
        "srv": "",
        "testData": "",
        "verification": ""
      }
    ],
    "testDataTestCases": [
      {
        "key": "demoKey1[]",
        "value": "[true, true]",
        "description": ""
      },
      {
        "key": "demoKey1[]",
        "value": "[false, false]",
        "description": ""
      },
      {
        "key": "demoKey2",
        "value": "[[true, false], [true, false]]",
        "description": ""
      },
      {
        "key": "demoKeyObject",
        "value": "ALL_FALSE",
        "description": ""
      }
    ],
    "testDataIteration": [],
    "verificationTestCases": []
  }
}