{
  "name": "EngineErrorThrow",
  "description": "",
  "status": "visible",
  "ts": {
    "abstractions": [
      {
        "name": "tc.Actor.EngineError.ThrowDataLocal",
        "execution": "",
        "iterations": ""
      },
      {
        "name": "tc.Actor.EngineError.ThrowDataOrig",
        "execution": "",
        "iterations": ""
      },
      {
        "name": "tc.Actor.EngineError.ThrowDataProxy",
        "execution": "",
        "iterations": ""
      },
      {
        "name": "tc.Actor.EngineError.ThrowDataTerm",
        "execution": "",
        "iterations": ""
      },
      {
        "name": "tc.Actor.EngineError.ThrowDataCond",
        "execution": "",
        "iterations": ""
      },
      {
        "name": "tc.Actor.EngineError.ThrowInitServerProxy",
        "execution": "",
        "iterations": ""
      },
      {
        "name": "tc.Actor.EngineError.ThrowInitServerTerm",
        "execution": "",
        "iterations": ""
      },
      {
        "name": "tc.Actor.EngineError.ThrowInitClientOrig",
        "execution": "",
        "iterations": ""
      },
      {
        "name": "tc.Actor.EngineError.ThrowInitClientProxy",
        "execution": "",
        "iterations": ""
      },
      {
        "name": "tc.Actor.EngineError.ThrowInitClientPreCond",
        "execution": "",
        "iterations": ""
      },
      {
        "name": "tc.Actor.EngineError.ThrowInitClientPostCond",
        "execution": "",
        "iterations": ""
      },
      {
        "name": "tc.Actor.EngineError.ThrowRunLocal",
        "execution": "",
        "iterations": ""
      },
      {
        "name": "tc.Actor.EngineError.ThrowRunOrig",
        "execution": "",
        "iterations": ""
      },
      {
        "name": "tc.Actor.EngineError.ThrowRunProxy",
        "execution": "",
        "iterations": ""
      },
      {
        "name": "tc.Actor.EngineError.ThrowRunTerm",
        "execution": "",
        "iterations": ""
      },
      {
        "name": "tc.Actor.EngineError.ThrowRunPreCond",
        "execution": "",
        "iterations": ""
      },
      {
        "name": "tc.Actor.EngineError.ThrowRunPostCond",
        "execution": "",
        "iterations": ""
      },
      {
        "name": "tc.Actor.EngineError.ThrowExitOrig",
        "execution": "",
        "iterations": ""
      },
      {
        "name": "tc.Actor.EngineError.ThrowExitProxy",
        "execution": "",
        "iterations": ""
      },
      {
        "name": "tc.Actor.EngineError.ThrowExitTerm",
        "execution": "",
        "iterations": ""
      },
      {
        "name": "tc.Actor.EngineError.ThrowExitPreCond",
        "execution": "",
        "iterations": ""
      },
      {
        "name": "tc.Actor.EngineError.ThrowExitPostCond",
        "execution": "",
        "iterations": ""
      },
      {
        "name": "tc.Actor.EngineError.ThrowRun1stOf2Orig",
        "execution": "",
        "iterations": ""
      },
      {
        "name": "tc.Actor.EngineError.ThrowRun2stOf2Orig",
        "execution": "",
        "iterations": ""
      }
    ]
  }
}