{
  "name": "VerifyMandatoryEqualValueArrayString001",
  "description": "",
  "status": "visible",
  "tc": {
    "actors": [
      {
        "_defaultValues": [
          [
            "execution",
            null
          ],
          [
            "phase",
            null
          ]
        ],
        "_allowedValues": [
          [
            "type",
            null
          ],
          [
            "phase",
            null
          ]
        ],
        "name": "Actors-global.engine.actors.verify.VerifyMandatoryTestDataValueArrayStringLocal",
        "type": "local",
        "phase": "",
        "address": "",
        "execution": ""
      }
    ],
    "testDataTestCases": [
      {
        "_defaultValues": [],
        "_allowedValues": [],
        "key": "mandatory",
        "value": "[\"a\", \"b\", \"c\"]",
        "description": ""
      }
    ],
    "verificationTestCases": [
      {
        "_defaultValues": [],
        "_allowedValues": [],
        "key": "mandatory",
        "value": "[\"a\", \"b\", \"c\"]",
        "operation": "===",
        "type": "[string]",
        "description": ""
      }
    ]
  }
}