{
  "name": "DocActorApiVerifyValueKFailure",
  "description": "",
  "status": "visible",
  "tc": {
    "settings": [
      {
        "preResult": "none",
        "execResult": "failure",
        "postResult": "none"
      }
    ],
    "actors": [
      {
        "name": "Actors-global.doc.verificationData.verifyValue.VerifyValueKFailureLocal",
        "type": "local",
        "phase": "exec",
        "execution": "",
        "src": "",
        "dst": "",
        "srv": "",
        "testData": "",
        "verification": ""
      }
    ],
    "testDataTestCases": [],
    "testDataIteration": [],
    "verificationTestCases": []
  }
}