{
  "name": "DemoMobileBrowsingRightsGetImage",
  "description": "",
  "status": "visible",
  "tc": {
    "settings": [],
    "actors": [
      {
        "name": "Actors-global.demo.stack.protocols.DemoMobileGetImageOrig",
        "type": "orig",
        "phase": "exec",
        "execution": "",
        "src": "testSrc1",
        "dst": "WwwPxy",
        "srv": "",
        "testData": "",
        "verification": ""
      },
      {
        "name": "Actors-global.demo.stack.protocols.DemoSutRightsGetImageProxy",
        "type": "proxy",
        "phase": "exec",
        "execution": "",
        "src": "",
        "dst": "[\"RightsSrv\", \"WwwSrv\"]",
        "srv": "WwwPxy",
        "testData": "",
        "verification": ""
      },
      {
        "name": "Actors-global.demo.stack.protocols.DemoRightsTerm",
        "type": "term",
        "phase": "exec",
        "execution": "",
        "src": "",
        "dst": "",
        "srv": "RightsSrv",
        "testData": "",
        "verification": ""
      },
      {
        "name": "Actors-global.demo.stack.protocols.DemoWwwGetImageTerm",
        "type": "term",
        "phase": "exec",
        "execution": "",
        "src": "",
        "dst": "",
        "srv": "WwwSrv",
        "testData": "",
        "verification": ""
      }
    ],
    "testDataTestCases": [
      {
        "key": "request-uri",
        "value": "image.png",
        "description": ""
      },
      {
        "key": "accept",
        "value": "image/png",
        "description": ""
      },
      {
        "key": "content-name",
        "value": "pettersson",
        "description": ""
      }
    ],
    "testDataIteration": [],
    "verificationTestCases": []
  }
}