{
  "name": "AddSecondsNanoSecondsNoExtraSeconds",
  "description": "",
  "status": "visible",
  "tc": {
    "settings": [],
    "actors": [
      {
        "name": "Actors-global.unit-test.high-resolution-timer.AddLocal",
        "type": "local",
        "phase": "exec",
        "execution": "",
        "src": "",
        "dst": "",
        "srv": "",
        "testData": "",
        "verification": ""
      }
    ],
    "testDataTestCases": [
      {
        "key": "term1",
        "value": "[88, 100000000]",
        "description": ""
      },
      {
        "key": "term2",
        "value": "[7, 300000000]",
        "description": ""
      }
    ],
    "testDataIteration": [],
    "verificationTestCases": [
      {
        "key": "result",
        "value": "[95, 400000000]",
        "operation": "",
        "type": "[number]",
        "description": ""
      }
    ]
  }
}