{
  "name": "ThrowInitClientPostCond",
  "description": "",
  "status": "visible",
  "tc": {
    "settings": [
      {
        "preResult": "success",
        "execResult": "none",
        "postResult": "error"
      }
    ],
    "actors": [
      {
        "name": "Actors-global.engine.actors.empty.EmptyVerifyCondActorStatesInitLocal",
        "type": "local",
        "phase": "pre",
        "execution": "",
        "src": "",
        "dst": "",
        "srv": "",
        "testData": "",
        "verification": ""
      },
      {
        "name": "Actors-global.engine.actors.throw.ThrowCond",
        "type": "cond",
        "phase": "pre, post",
        "execution": "",
        "src": "",
        "dst": "",
        "srv": "",
        "testData": "",
        "verification": ""
      },
      {
        "name": "Actors-global.engine.actors.empty.EmptyVerifyCondActorStatesLocal",
        "type": "local",
        "phase": "post",
        "execution": "",
        "src": "",
        "dst": "",
        "srv": "",
        "testData": "",
        "verification": ""
      }
    ],
    "testDataTestCases": [
      {
        "key": "tc__staticData",
        "value": "true",
        "description": ""
      },
      {
        "key": "throwState",
        "value": "initClientPost",
        "description": ""
      }
    ],
    "testDataIteration": [],
    "verificationTestCases": [
      {
        "key": "stateControl[]",
        "value": "[0, 0, 0, 0, 0]",
        "operation": "",
        "type": "[number]",
        "description": ""
      },
      {
        "key": "stateControl[]",
        "value": "[1, 0, 1, 1, 1, 0, 1, 0, 0]",
        "operation": "",
        "type": "[number]",
        "description": ""
      },
      {
        "key": "stateResult[]",
        "value": "[\"Success\", \"n/a\", \"Success\", \"Success\", \"Success\"]",
        "operation": "",
        "type": "[string]",
        "description": ""
      },
      {
        "key": "stateResult[]",
        "value": "[\"n/a\", \"n/a\", \"Error\", \"n_exec\", \"n_exec\"]",
        "operation": "",
        "type": "[string]",
        "description": ""
      }
    ]
  }
}