{
  "name": "FailureExitOrig",
  "description": "One originating actor fails in the exit state.",
  "status": "visible",
  "tc": {
    "actors": [
      {
        "name": "Actors-global.engine.actors.failure.FailureExitOrig",
        "type": "orig",
        "execution": "serial"
      }
    ],
    "testDataTestCases": [],
    "verificationTestCases": []
  }
}