{
  "name": "SocketObjectUdpOrigProxyTerm001",
  "description": "",
  "status": "visible",
  "tc": {
    "settings": [],
    "actors": [
      {
        "name": "Actors-global.stack.stacks.socket.object.SocketObjectOrig",
        "type": "orig",
        "phase": "",
        "execution": "",
        "src": "testSrc1",
        "dst": "testSrv1",
        "srv": "",
        "testData": "",
        "verification": ""
      },
      {
        "name": "Actors-global.stack.stacks.socket.object.SocketObjectProxy",
        "type": "proxy",
        "phase": "",
        "execution": "",
        "src": "testSrc2",
        "dst": "testSrv2",
        "srv": "testSrv1",
        "testData": "",
        "verification": ""
      },
      {
        "name": "Actors-global.stack.stacks.socket.object.SocketObjectTerm",
        "type": "term",
        "phase": "",
        "execution": "",
        "src": "",
        "dst": "",
        "srv": "testSrv2",
        "testData": "",
        "verification": ""
      }
    ],
    "testDataTestCases": [
      {
        "key": "network-type",
        "value": "udp",
        "description": ""
      },
      {
        "key": "network-type-server",
        "value": "udp",
        "description": ""
      },
      {
        "key": "network-type-client",
        "value": "udp",
        "description": ""
      }
    ],
    "testDataIteration": [],
    "verificationTestCases": []
  }
}