{
  "name": "AddNanoSecondsOneExtraSecond",
  "description": "",
  "status": "visible",
  "tc": {
    "settings": [],
    "actors": [
      {
        "name": "Actors-global.unit-test.high-resolution-timer.AddLocal",
        "type": "local",
        "phase": "exec",
        "execution": "",
        "src": "",
        "dst": "",
        "srv": "",
        "testData": "",
        "verification": ""
      }
    ],
    "testDataTestCases": [
      {
        "key": "term1",
        "value": "[1, 900000000]",
        "description": ""
      },
      {
        "key": "term2",
        "value": "[0, 300000000]",
        "description": ""
      }
    ],
    "testDataIteration": [],
    "verificationTestCases": [
      {
        "key": "result",
        "value": "[2, 200000000]",
        "operation": "",
        "type": "[number]",
        "description": ""
      }
    ]
  }
}