[
  {
    "name": "@babel/core",
    "version": "7.12.10",
    "dev": "",
    "licenses": ""
  },
  {
    "name": "@babel/plugin-transform-runtime",
    "version": "7.12.10",
    "dev": "",
    "licenses": ""
  },
  {
    "name": "@babel/preset-env",
    "version": "7.12.11",
    "dev": "",
    "licenses": ""
  },
  {
    "name": "@babel/preset-react",
    "version": "7.12.10",
    "dev": "",
    "licenses": ""
  },
  {
    "name": "@babel/runtime",
    "version": "7.12.5",
    "dev": "",
    "licenses": ""
  },
  {
    "name": "babel-preset-minify",
    "version": "0.5.1",
    "dev": "",
    "licenses": ""
  },
  {
    "name": "babelify",
    "version": "10.0.0",
    "dev": "",
    "licenses": ""
  },
  {
    "name": "bootstrap",
    "version": "3.4.1",
    "dev": "",
    "licenses": ""
  },
  {
    "name": "browserify",
    "version": "17.0.0",
    "dev": "",
    "licenses": ""
  },
  {
    "name": "browserify-shim",
    "version": "3.8.14",
    "dev": "",
    "licenses": ""
  },
  {
    "name": "bufferutil",
    "version": "4.0.2",
    "dev": "",
    "licenses": ""
  },
  {
    "name": "chokidar",
    "version": "3.4.3",
    "dev": "",
    "licenses": ""
  },
  {
    "name": "chrome-remote-interface",
    "version": "0.28.2",
    "dev": "",
    "licenses": ""
  },
  {
    "name": "cli-color",
    "version": "2.0.0",
    "dev": "",
    "licenses": ""
  },
  {
    "name": "cm-show-invisibles",
    "version": "3.1.0",
    "dev": "",
    "licenses": ""
  },
  {
    "name": "codemirror",
    "version": "5.58.3",
    "dev": "",
    "licenses": ""
  },
  {
    "name": "colors",
    "version": "1.4.0",
    "dev": "",
    "licenses": ""
  },
  {
    "name": "envify",
    "version": "4.1.0",
    "dev": "",
    "licenses": ""
  },
  {
    "name": "glob",
    "version": "7.1.6",
    "dev": "",
    "licenses": ""
  },
  {
    "name": "graceful-fs",
    "version": "4.2.4",
    "dev": "",
    "licenses": ""
  },
  {
    "name": "gulp",
    "version": "4.0.2",
    "dev": "",
    "licenses": ""
  },
  {
    "name": "gulp-babel",
    "version": "8.0.0",
    "dev": "",
    "licenses": ""
  },
  {
    "name": "gulp-beautify",
    "version": "3.0.0",
    "dev": "",
    "licenses": ""
  },
  {
    "name": "gulp-cached",
    "version": "1.1.1",
    "dev": "",
    "licenses": ""
  },
  {
    "name": "gulp-changed",
    "version": "4.0.2",
    "dev": "",
    "licenses": ""
  },
  {
    "name": "gulp-cli",
    "version": "2.3.0",
    "dev": "",
    "licenses": ""
  },
  {
    "name": "gulp-concat",
    "version": "2.6.1",
    "dev": "",
    "licenses": ""
  },
  {
    "name": "gulp-connect",
    "version": "5.7.0",
    "dev": "",
    "licenses": ""
  },
  {
    "name": "gulp-if",
    "version": "3.0.0",
    "dev": "",
    "licenses": ""
  },
  {
    "name": "gulp-open",
    "version": "3.0.1",
    "dev": "",
    "licenses": ""
  },
  {
    "name": "gulp-plumber",
    "version": "1.2.1",
    "dev": "",
    "licenses": ""
  },
  {
    "name": "gulp-print",
    "version": "5.0.2",
    "dev": "",
    "licenses": ""
  },
  {
    "name": "gulp-replace",
    "version": "1.0.0",
    "dev": "",
    "licenses": ""
  },
  {
    "name": "gulp-uglify",
    "version": "3.0.2",
    "dev": "",
    "licenses": ""
  },
  {
    "name": "jquery",
    "version": "3.5.1",
    "dev": "",
    "licenses": ""
  },
  {
    "name": "jquery-ui-dist",
    "version": "1.12.1",
    "dev": "",
    "licenses": ""
  },
  {
    "name": "jquery.fancytree",
    "version": "2.37.0",
    "dev": "",
    "licenses": ""
  },
  {
    "name": "jshint",
    "version": "2.12.0",
    "dev": "",
    "licenses": ""
  },
  {
    "name": "lodash",
    "version": "4.17.20",
    "dev": "",
    "licenses": ""
  },
  {
    "name": "npm",
    "version": "6.14.10",
    "dev": "",
    "licenses": ""
  },
  {
    "name": "puppeteer",
    "version": "2.0.0",
    "dev": "",
    "licenses": ""
  },
  {
    "name": "react",
    "version": "16.14.0",
    "dev": "",
    "licenses": ""
  },
  {
    "name": "react-dom",
    "version": "16.14.0",
    "dev": "",
    "licenses": ""
  },
  {
    "name": "remarkable",
    "version": "2.0.1",
    "dev": "",
    "licenses": ""
  },
  {
    "name": "semver",
    "version": "7.3.4",
    "dev": "",
    "licenses": ""
  },
  {
    "name": "simple-git",
    "version": "2.31.0",
    "dev": "",
    "licenses": ""
  },
  {
    "name": "sudo-js",
    "version": "1.0.2",
    "dev": "",
    "licenses": ""
  },
  {
    "name": "sudo-prompt",
    "version": "9.2.1",
    "dev": "",
    "licenses": ""
  },
  {
    "name": "through2",
    "version": "4.0.2",
    "dev": "",
    "licenses": ""
  },
  {
    "name": "url-pattern",
    "version": "1.0.3",
    "dev": "",
    "licenses": ""
  },
  {
    "name": "utf-8-validate",
    "version": "5.0.3",
    "dev": "",
    "licenses": ""
  },
  {
    "name": "vinyl-buffer",
    "version": "1.0.1",
    "dev": "",
    "licenses": ""
  },
  {
    "name": "vinyl-source-stream",
    "version": "2.0.0",
    "dev": "",
    "licenses": ""
  },
  {
    "name": "ws",
    "version": "7.4.1",
    "dev": "",
    "licenses": ""
  }
]