{
  "name": "StackSocketLineUdpNormal",
  "description": "",
  "status": "visible",
  "tc": {
    "settings": [],
    "actors": [
      {
        "name": "Actors-global.stack.stacks.socket.SocketReceiveLineDefragOrig",
        "type": "orig",
        "phase": "exec",
        "execution": "",
        "src": "",
        "dst": "testSrv1",
        "srv": "",
        "testData": ""
      },
      {
        "name": "Actors-global.stack.stacks.socket.SocketReceiveLineDefragTerm",
        "type": "term",
        "phase": "exec",
        "execution": "",
        "src": "",
        "dst": "",
        "srv": "testSrv1",
        "testData": ""
      }
    ],
    "testDataTestCases": [
      {
        "key": "clientMsg[]",
        "value": "[\"Hello \", \"Server\", \"\\r\\n\"]",
        "description": ""
      },
      {
        "key": "serverMsg[]",
        "value": "[\"Hello \", \"Client\", \"\\r\\n\"]",
        "description": ""
      },
      {
        "key": "transport",
        "value": "udp",
        "description": ""
      }
    ],
    "testDataIteration": [],
    "verificationTestCases": [
      {
        "key": "clientMsg[]",
        "value": "[\"Hello Server\"]",
        "operation": "",
        "type": "[string]",
        "description": ""
      },
      {
        "key": "serverMsg[]",
        "value": "[\"Hello Client\"]",
        "operation": "",
        "type": "[string]",
        "description": ""
      }
    ]
  }
}