{
  "name": "StackSocketSizeTcpOrigTerm002",
  "description": "",
  "status": "visible",
  "tc": {
    "settings": [],
    "actors": [
      {
        "name": "Actors-global.stack.stacks.socket.SocketReceiveSizeOrig",
        "type": "orig",
        "phase": "exec",
        "execution": "",
        "src": "",
        "dst": "testSrv1",
        "srv": "",
        "testData": ""
      },
      {
        "name": "Actors-global.stack.stacks.socket.SocketReceiveSizeTerm",
        "type": "term",
        "phase": "exec",
        "execution": "",
        "src": "",
        "dst": "",
        "srv": "testSrv1",
        "testData": ""
      }
    ],
    "testDataTestCases": [
      {
        "key": "clientMsg",
        "value": "[\"Hello Server\", \" and again to the server.\"]",
        "description": ""
      },
      {
        "key": "clientSendDelays",
        "value": "[1, 1]",
        "description": ""
      },
      {
        "key": "serverMsg",
        "value": "[\"Hello Client\", \" more to the client.\"]",
        "description": ""
      },
      {
        "key": "serverSendDelays",
        "value": "[1, 1]",
        "description": ""
      }
    ],
    "testDataIteration": [],
    "verificationTestCases": [
      {
        "key": "clientMsg",
        "value": "Hello Server and again to the server.",
        "operation": "",
        "type": "",
        "description": ""
      },
      {
        "key": "serverMsg",
        "value": "Hello Client more to the client.",
        "operation": "",
        "type": "",
        "description": ""
      }
    ]
  }
}