{
  "name": "StackSocketLineTcpNormalExtraData002",
  "description": "",
  "status": "visible",
  "tc": {
    "settings": [],
    "actors": [
      {
        "name": "Actors-global.stack.stacks.socket.SocketReceiveLineDefragOrig",
        "type": "orig",
        "phase": "exec",
        "execution": "",
        "src": "",
        "dst": "testSrv1",
        "srv": "",
        "testData": ""
      },
      {
        "name": "Actors-global.stack.stacks.socket.SocketReceiveLineDefragTerm",
        "type": "term",
        "phase": "exec",
        "execution": "",
        "src": "",
        "dst": "",
        "srv": "testSrv1",
        "testData": ""
      }
    ],
    "testDataTestCases": [
      {
        "key": "clientMsg[]",
        "value": "[\"Hello Server\\r\\nThis is extra client\"]",
        "description": ""
      },
      {
        "key": "clientMsg[]",
        "value": "[\" Data\\r\\n\"]",
        "description": ""
      },
      {
        "key": "serverMsg[]",
        "value": "[\"Hello Client\\r\\nThis is extra server \"]",
        "description": ""
      },
      {
        "key": "serverMsg[]",
        "value": "[\"Data\\r\\n\"]",
        "description": ""
      }
    ],
    "testDataIteration": [],
    "verificationTestCases": [
      {
        "key": "clientMsg[]",
        "value": "Hello Server",
        "operation": "",
        "type": "",
        "description": ""
      },
      {
        "key": "clientMsg[]",
        "value": "This is extra client Data",
        "operation": "",
        "type": "",
        "description": ""
      },
      {
        "key": "serverMsg[]",
        "value": "Hello Client",
        "operation": "",
        "type": "",
        "description": ""
      },
      {
        "key": "serverMsg[]",
        "value": "This is extra server Data",
        "operation": "",
        "type": "",
        "description": ""
      }
    ]
  }
}