{
  "name": "DocActorApiSharedDataSetGetUndefined",
  "description": "",
  "status": "visible",
  "tc": {
    "settings": [],
    "actors": [
      {
        "name": "Actors-global.doc.sharedData.DocSharedDataSetLocal",
        "type": "local",
        "phase": "exec",
        "execution": "parallel",
        "src": "",
        "dst": "",
        "srv": "",
        "testData": "",
        "verification": ""
      },
      {
        "name": "Actors-global.doc.sharedData.DocSharedDataGetLocal",
        "type": "local",
        "phase": "exec",
        "execution": "parallel",
        "src": "",
        "dst": "",
        "srv": "",
        "testData": "",
        "verification": ""
      }
    ],
    "testDataTestCases": [
      {
        "key": "shared-data-get-verify-value",
        "value": "$[undefined]",
        "description": ""
      },
      {
        "key": "shared-data-set-value-undefined",
        "value": "true",
        "description": ""
      }
    ],
    "testDataIteration": [],
    "verificationTestCases": []
  }
}