{
  "name": "ContentBasic",
  "description": "",
  "status": "visible",
  "ts": {
    "abstractions": [
      {
        "name": "tc.Actor.Content.ContentImageJpeg",
        "execution": "",
        "iterations": ""
      },
      {
        "name": "tc.Actor.Content.ContentByNameImageJpeg",
        "execution": "",
        "iterations": ""
      }
    ]
  }
}