{
  "name": "TestDataDefaultNumberSuccess0002",
  "description": "",
  "status": "visible",
  "tc": {
    "settings": [],
    "actors": [
      {
        "name": "Actors-global.engine.actors.test-data.TestDataDefaultSuccessLocal",
        "type": "local",
        "phase": "",
        "execution": "",
        "src": "",
        "dst": "",
        "srv": "",
        "testData": ""
      }
    ],
    "testDataTestCases": [
      {
        "key": "method",
        "value": "getTestDataNumber",
        "description": ""
      },
      {
        "key": "defaultValue",
        "value": "1.2",
        "description": ""
      },
      {
        "key": "defaultType",
        "value": "string",
        "description": ""
      }
    ],
    "testDataIteration": [],
    "verificationTestCases": [
      {
        "key": "testData",
        "value": "1.2",
        "operation": "",
        "type": "number",
        "description": ""
      }
    ]
  }
}