{
  "name": "ActorApiSharedData",
  "description": "",
  "status": "visible",
  "ts": {
    "abstractions": [
      {
        "name": "tc.Actor.Doc.DocActorApiSharedDataSetGetValue",
        "execution": "",
        "iterations": ""
      },
      {
        "name": "tc.Actor.Doc.DocActorApiSharedDataSetDefaultValue",
        "execution": "",
        "iterations": ""
      },
      {
        "name": "tc.Actor.Doc.DocActorApiSharedDataSetGetUndefined",
        "execution": "",
        "iterations": ""
      },
      {
        "name": "tc.Actor.Doc.DocActorApiSharedDataWaitIteration",
        "execution": "",
        "iterations": ""
      },
      {
        "name": "tc.Actor.Doc.DocActorApiSharedDataWaitMultiple",
        "execution": "",
        "iterations": ""
      }
    ]
  }
}