{
  "name": "DocActorApiGetTestDataBooleansE",
  "description": "",
  "status": "visible",
  "tc": {
    "settings": [],
    "actors": [
      {
        "name": "Actors-global.doc.testData.getBooleans.GetTestDataBooleansEOrig",
        "type": "orig",
        "phase": "",
        "execution": "",
        "src": "",
        "dst": "",
        "srv": "",
        "testData": "",
        "verification": ""
      }
    ],
    "testDataTestCases": [
      {
        "key": "demoKey1[]",
        "value": "true",
        "description": ""
      },
      {
        "key": "demoKey1[]",
        "value": "false",
        "description": ""
      },
      {
        "key": "demoKey2",
        "value": "[false, true]",
        "description": ""
      },
      {
        "key": "demoKeyObject",
        "value": "ALL_TRUE",
        "description": ""
      }
    ],
    "testDataIteration": [],
    "verificationTestCases": []
  }
}