{
  "name": "VerifyOptionalArrayNumbersIndexes006",
  "description": "",
  "status": "visible",
  "tc": {
    "settings": [
      {
        "preResult": "none",
        "execResult": "failure",
        "postResult": "none"
      }
    ],
    "actors": [
      {
        "name": "Actors-global.engine.actors.verify.optional.VerifyOptionalArrayNumbersIndexesLocal",
        "type": "local",
        "phase": "exec",
        "execution": "",
        "src": "",
        "dst": "",
        "srv": "",
        "testData": "",
        "verification": ""
      }
    ],
    "testDataTestCases": [
      {
        "key": "optional",
        "value": "true",
        "description": ""
      },
      {
        "key": "index1",
        "value": "0",
        "description": ""
      },
      {
        "key": "index2",
        "value": "0",
        "description": ""
      }
    ],
    "testDataIteration": [],
    "verificationTestCases": [
      {
        "key": "optional",
        "value": "[[1, 2, 3], [4, 5, 6], [7, 8, 9]]",
        "operation": "",
        "type": "[[number]]",
        "description": ""
      }
    ]
  }
}