{
  "name": "StackSocketLineTcpOrigTerm2Lines002",
  "description": "",
  "status": "visible",
  "tc": {
    "settings": [],
    "actors": [
      {
        "name": "Actors-global.stack.stacks.socket.SocketReceiveLineDefragOrig",
        "type": "orig",
        "phase": "exec",
        "execution": "",
        "src": "",
        "dst": "testSrv1",
        "srv": "",
        "testData": ""
      },
      {
        "name": "Actors-global.stack.stacks.socket.SocketReceiveLineDefragTerm",
        "type": "term",
        "phase": "exec",
        "execution": "",
        "src": "",
        "dst": "",
        "srv": "testSrv1",
        "testData": ""
      }
    ],
    "testDataTestCases": [
      {
        "key": "clientMsg[]",
        "value": "[\"S\\r\\n\"]",
        "description": ""
      },
      {
        "key": "clientMsg[]",
        "value": "[\"5\\r\\n\"]",
        "description": ""
      },
      {
        "key": "serverMsg[]",
        "value": "[\"C\\r\\n\"]",
        "description": ""
      },
      {
        "key": "serverMsg[]",
        "value": "[\"6\\r\\n\"]",
        "description": ""
      }
    ],
    "testDataIteration": [],
    "verificationTestCases": [
      {
        "key": "clientMsg[]",
        "value": "[\"S\"]",
        "operation": "",
        "type": "[string]",
        "description": ""
      },
      {
        "key": "clientMsg[]",
        "value": "[\"5\"]",
        "operation": "",
        "type": "[string]",
        "description": ""
      },
      {
        "key": "serverMsg[]",
        "value": "[\"C\"]",
        "operation": "",
        "type": "[string]",
        "description": ""
      },
      {
        "key": "serverMsg[]",
        "value": "[\"6\"]",
        "operation": "",
        "type": "[string]",
        "description": ""
      }
    ]
  }
}