{
  "name": "VerifyValueSuccessNumber",
  "description": "",
  "status": "visible",
  "ts": {
    "abstractions": [
      {
        "name": "tc.Actor.VerifyValueSuccess.VerifyValueEqualNumber001",
        "execution": "",
        "iterations": ""
      },
      {
        "name": "tc.Actor.VerifyValueSuccess.VerifyValueEqualNumber002",
        "execution": "",
        "iterations": ""
      },
      {
        "name": "tc.Actor.VerifyValueSuccess.VerifyValueEqualNumber003",
        "execution": "",
        "iterations": ""
      },
      {
        "name": "tc.Actor.VerifyValueSuccess.VerifyValueEqualNumber004",
        "execution": "",
        "iterations": ""
      },
      {
        "name": "tc.Actor.VerifyValueSuccess.VerifyValueEqualNumber005",
        "execution": "",
        "iterations": ""
      }
    ]
  }
}