{
  "name": "EmptyTermProxyOrig",
  "description": "One originating actor, one proxy actor and one terminating actor doing nothing.",
  "status": "visible",
  "tc": {
    "settings": [],
    "actors": [
      {
        "name": "Actors-global.engine.actors.empty.EmptyVerifyActorStatesInitLocal",
        "type": "local",
        "phase": "pre",
        "execution": "",
        "src": "",
        "dst": "",
        "srv": "",
        "testData": "",
        "verification": ""
      },
      {
        "name": "Actors-global.engine.actors.empty.EmptyOrig",
        "type": "orig",
        "phase": "",
        "execution": "",
        "src": "",
        "dst": "",
        "srv": "",
        "testData": "",
        "verification": ""
      },
      {
        "name": "Actors-global.engine.actors.empty.EmptyProxy",
        "type": "proxy",
        "phase": "",
        "execution": "",
        "src": "",
        "dst": "",
        "srv": "",
        "testData": "",
        "verification": ""
      },
      {
        "name": "Actors-global.engine.actors.empty.EmptyTerm",
        "type": "term",
        "phase": "",
        "execution": "",
        "src": "",
        "dst": "",
        "srv": "",
        "testData": "",
        "verification": ""
      },
      {
        "name": "Actors-global.engine.actors.empty.EmptyVerifyActorStatesLocal",
        "type": "local",
        "phase": "post",
        "execution": "",
        "src": "",
        "dst": "",
        "srv": "",
        "testData": "",
        "verification": ""
      }
    ],
    "testDataTestCases": [
      {
        "key": "tc__staticData",
        "value": "true",
        "description": ""
      }
    ],
    "testDataIteration": [],
    "verificationTestCases": [
      {
        "key": "stateControl[]",
        "value": "[1, 0, 1, 1, 1]",
        "operation": "",
        "type": "[number]",
        "description": ""
      },
      {
        "key": "stateControl[]",
        "value": "[1, 1, 1, 1, 1]",
        "operation": "",
        "type": "[number]",
        "description": ""
      },
      {
        "key": "stateControl[]",
        "value": "[1, 1, 0, 1, 1]",
        "operation": "",
        "type": "[number]",
        "description": ""
      }
    ]
  }
}