{
  "name": "StackSocketLineTcpNormalExtraData",
  "description": "Sending and receiving a line with more data",
  "status": "visible",
  "tc": {
    "settings": [],
    "actors": [
      {
        "name": "Actors-global.stack.stacks.socket.SocketReceiveLineDefragOrig",
        "type": "orig",
        "phase": "exec",
        "execution": "",
        "src": "",
        "dst": "testSrv1",
        "srv": "",
        "testData": ""
      },
      {
        "name": "Actors-global.stack.stacks.socket.SocketReceiveLineDefragTerm",
        "type": "term",
        "phase": "exec",
        "execution": "",
        "src": "",
        "dst": "",
        "srv": "testSrv1",
        "testData": ""
      }
    ],
    "testDataTestCases": [
      {
        "key": "clientMsg[]",
        "value": "[\"Hello Server\\r\\nThis is extraData\"]",
        "description": ""
      },
      {
        "key": "clientMsg[]",
        "value": "[\"\\r\\n\"]",
        "description": ""
      },
      {
        "key": "serverMsg[]",
        "value": "[\"Hello Client\\r\\nThis is extraData\"]",
        "description": ""
      },
      {
        "key": "serverMsg[]",
        "value": "[\"\\r\\n\"]",
        "description": ""
      }
    ],
    "testDataIteration": [],
    "verificationTestCases": [
      {
        "key": "clientMsg[]",
        "value": "[\"Hello Server\"]",
        "operation": "",
        "type": "[string]",
        "description": ""
      },
      {
        "key": "clientMsg[]",
        "value": "[\"This is extraData\"]",
        "operation": "",
        "type": "[string]",
        "description": ""
      },
      {
        "key": "serverMsg[]",
        "value": "[\"Hello Client\"]",
        "operation": "",
        "type": "[string]",
        "description": ""
      },
      {
        "key": "serverMsg[]",
        "value": "[\"This is extraData\"]",
        "operation": "",
        "type": "[string]",
        "description": ""
      }
    ]
  }
}