{
  "name": "VerifyOptionalFailure",
  "description": "",
  "status": "visible",
  "ts": {
    "abstractions": [
      {
        "name": "tc.Actor.VerifyOptionalFailure.VerifyOptionalArrayNumbersIndexes001",
        "execution": "",
        "iterations": ""
      },
      {
        "name": "tc.Actor.VerifyOptionalFailure.VerifyOptionalArrayNumbersIndexes002",
        "execution": "",
        "iterations": ""
      },
      {
        "name": "tc.Actor.VerifyOptionalFailure.VerifyOptionalArrayNumbersIndexes003",
        "execution": "",
        "iterations": ""
      },
      {
        "name": "tc.Actor.VerifyOptionalFailure.VerifyOptionalArrayNumbersIndexes004",
        "execution": "",
        "iterations": ""
      },
      {
        "name": "tc.Actor.VerifyOptionalFailure.VerifyOptionalArrayNumbersIndexes005",
        "execution": "",
        "iterations": ""
      },
      {
        "name": "tc.Actor.VerifyOptionalFailure.VerifyOptionalArrayNumbersIndexes006",
        "execution": "",
        "iterations": ""
      },
      {
        "name": "tc.Actor.VerifyOptionalFailure.VerifyOptionalArrayNumbersIndexes007",
        "execution": "",
        "iterations": ""
      },
      {
        "name": "tc.Actor.VerifyOptionalFailure.VerifyOptionalArrayNumbersIndexes008",
        "execution": "",
        "iterations": ""
      },
      {
        "name": "tc.Actor.VerifyOptionalFailure.VerifyOptionalArrayNumbersIndexes009",
        "execution": "",
        "iterations": ""
      }
    ]
  }
}