{
  "name": "VerifyMandatoryEqualStringNumber001",
  "description": "",
  "status": "visible",
  "tc": {
    "settings": [],
    "actors": [
      {
        "name": "Actors-global.engine.actors.verify.VerifyMandatoryNumberDataOrig",
        "type": "orig",
        "phase": "",
        "execution": "",
        "src": "",
        "dst": "",
        "srv": "",
        "testData": ""
      }
    ],
    "testDataTestCases": [
      {
        "key": "mandatory",
        "value": "1234",
        "description": ""
      }
    ],
    "testDataIteration": [],
    "verificationTestCases": [
      {
        "key": "mandatory",
        "value": "1234",
        "operation": "==",
        "type": "",
        "description": ""
      }
    ]
  }
}