{
  "name": "DocActorApiSharedDataWaitIteration",
  "description": "",
  "status": "visible",
  "tc": {
    "settings": [],
    "actors": [
      {
        "name": "Actors-global.doc.sharedData.DocSharedDataSetIterateValueLocal",
        "type": "local",
        "phase": "exec",
        "execution": "",
        "src": "",
        "dst": "",
        "srv": "",
        "testData": "",
        "verification": ""
      },
      {
        "name": "Actors-global.doc.sharedData.DocSharedDataAwaitIterateValueLocal",
        "type": "local",
        "phase": "exec",
        "execution": "parallel",
        "src": "",
        "dst": "",
        "srv": "",
        "testData": "",
        "verification": ""
      }
    ],
    "testDataTestCases": [
      {
        "key": "shared-data-set-values",
        "value": "[1, 3, 5, 7, 9]",
        "description": ""
      },
      {
        "key": "shared-data-wait-values",
        "value": "[1, 3, 5, 7, 9]",
        "description": ""
      }
    ],
    "testDataIteration": [],
    "verificationTestCases": []
  }
}