{
  "name": "StackSocketSizeTcpEmptyOrigTerm",
  "description": "",
  "status": "visible",
  "tc": {
    "settings": [],
    "actors": [
      {
        "name": "Actors-global.stack.stacks.socket.SocketReceiveSizeOrig",
        "type": "orig",
        "phase": "exec",
        "execution": "",
        "src": "",
        "dst": "testSrv1",
        "srv": "",
        "testData": ""
      },
      {
        "name": "Actors-global.stack.stacks.socket.SocketReceiveSizeTerm",
        "type": "term",
        "phase": "exec",
        "execution": "",
        "src": "",
        "dst": "",
        "srv": "testSrv1",
        "testData": ""
      }
    ],
    "testDataTestCases": [
      {
        "key": "clientMsg",
        "value": "[]",
        "description": ""
      },
      {
        "key": "serverMsg",
        "value": "[]",
        "description": ""
      }
    ],
    "testDataIteration": [],
    "verificationTestCases": []
  }
}