{
  "name": "DocActorApiGetTestDataObjectC",
  "description": "",
  "status": "visible",
  "tc": {
    "settings": [],
    "actors": [
      {
        "name": "Actors-global.doc.testData.getObject.GetTestDataObjectCOrig",
        "type": "orig",
        "phase": "",
        "execution": "",
        "src": "",
        "dst": "",
        "srv": "",
        "testData": "",
        "verification": ""
      }
    ],
    "testDataTestCases": [
      {
        "key": "demoKey",
        "value": "{\"name\": \"Stockholm\", \"population\": 1.6}",
        "description": ""
      },
      {
        "key": "demoKeyObject",
        "value": "OSLO",
        "description": ""
      }
    ],
    "testDataIteration": [],
    "verificationTestCases": []
  }
}