{
  "name": "DocActorApiGetTestDataNumbersA",
  "description": "",
  "status": "visible",
  "tc": {
    "settings": [],
    "actors": [
      {
        "name": "Actors-global.doc.testData.getNumbers.GetTestDataNumbersAOrig",
        "type": "orig",
        "phase": "exec",
        "execution": "",
        "src": "",
        "dst": "",
        "srv": "",
        "testData": "",
        "verification": ""
      }
    ],
    "testDataTestCases": [
      {
        "key": "demoKey1[]",
        "value": "56.833",
        "description": ""
      },
      {
        "key": "demoKey1[]",
        "value": "13.941",
        "description": ""
      },
      {
        "key": "demoKey2",
        "value": "[37.865, -119.538]",
        "description": ""
      },
      {
        "key": "demoKeyObject",
        "value": "Adelaide",
        "description": ""
      }
    ],
    "testDataIteration": [],
    "verificationTestCases": []
  }
}