{
  "name": "DocActorApiSharedDataSetDefaultValue",
  "description": "",
  "status": "visible",
  "tc": {
    "settings": [],
    "actors": [
      {
        "name": "Actors-global.doc.sharedData.DocSharedDataSetLocal",
        "type": "local",
        "phase": "exec",
        "execution": "parallel",
        "src": "",
        "dst": "",
        "srv": "",
        "testData": "",
        "verification": ""
      },
      {
        "name": "Actors-global.doc.sharedData.DocSharedDataGetLocal",
        "type": "local",
        "phase": "exec",
        "execution": "parallel",
        "src": "",
        "dst": "",
        "srv": "",
        "testData": "[[\"shared-data-get-key\", \"DeafultKey\"], [\"shared-data-get-default-value\",\"default\"], [\"shared-data-get-verify-value\", \"default\"]]",
        "verification": ""
      }
    ],
    "testDataTestCases": [
      {
        "key": "shared-data-get-default-value",
        "value": "default",
        "description": ""
      }
    ],
    "testDataIteration": [],
    "verificationTestCases": []
  }
}