{
  "name": "FailureSeveralPreFirstProxy",
  "description": "",
  "status": "visible",
  "tc": {
    "settings": [
      {
        "preResult": "",
        "execResult": "failure",
        "postResult": ""
      }
    ],
    "actors": [
      {
        "name": "Actors-global.engine.actors.part.PartInitLocal",
        "type": "local",
        "phase": "pre",
        "execution": "",
        "src": "",
        "dst": "",
        "srv": "",
        "testData": "",
        "verification": ""
      },
      {
        "name": "Actors-global.engine.actors.part.failure.PrePartSeveralFailureProxy",
        "type": "proxy",
        "phase": "",
        "execution": "",
        "src": "",
        "dst": "",
        "srv": "",
        "testData": "",
        "verification": ""
      },
      {
        "name": "Actors-global.engine.actors.part.PartVerifyLocal",
        "type": "local",
        "phase": "post",
        "execution": "",
        "src": "",
        "dst": "",
        "srv": "",
        "testData": "",
        "verification": ""
      }
    ],
    "testDataTestCases": [
      {
        "key": "failure-index",
        "value": "1",
        "description": ""
      }
    ],
    "testDataIteration": [],
    "verificationTestCases": [
      {
        "key": "execution-order",
        "value": "[\"FailureValuePre[1]\"]",
        "operation": "",
        "type": "[string]",
        "description": ""
      }
    ]
  }
}