{
  "name": "StackAll",
  "description": "",
  "status": "visible",
  "ts": {
    "abstractions": [
      {
        "name": "ts.Actor.StackSocket.StackSocketAll",
        "execution": "",
        "iterations": ""
      },
      {
        "name": "ts.Actor.StackHttp.StackHttpAll",
        "execution": "",
        "iterations": ""
      },
      {
        "name": "ts.Actor.StackDiameter.StackDiameterAll",
        "execution": "",
        "iterations": ""
      },
      {
        "name": "ts.Actor.StackDiameterCx.StackDiameterCxAll",
        "execution": "",
        "iterations": ""
      },
      {
        "name": "ts.Actor.StackSomeIp.StackSomeIpAll",
        "execution": "",
        "iterations": ""
      }
    ]
  }
}