{
  "name": "DocActorApiVerifyOptionalJSuccess",
  "description": "",
  "status": "visible",
  "tc": {
    "settings": [],
    "actors": [
      {
        "name": "Actors-global.doc.verificationData.verifyOptional.VerifyOptionalJSuccessLocal",
        "type": "local",
        "phase": "exec",
        "execution": "",
        "src": "",
        "dst": "",
        "srv": "",
        "testData": "",
        "verification": ""
      }
    ],
    "testDataTestCases": [],
    "testDataIteration": [],
    "verificationTestCases": [
      {
        "key": "demoKey1",
        "value": "[\"Hello\", \"Hi\"]",
        "operation": "",
        "type": "[string]",
        "description": ""
      },
      {
        "key": "demoKey2[]",
        "value": "Hello",
        "operation": "",
        "type": "",
        "description": ""
      },
      {
        "key": "demoKey2[]",
        "value": "Hi",
        "operation": "",
        "type": "",
        "description": ""
      },
      {
        "key": "demoKey3",
        "value": "[1, 2]",
        "operation": "",
        "type": "[number]",
        "description": ""
      },
      {
        "key": "demoKey4[]",
        "value": "1",
        "operation": "",
        "type": "number",
        "description": ""
      },
      {
        "key": "demoKey4[]",
        "value": "2",
        "operation": "",
        "type": "number",
        "description": ""
      },
      {
        "key": "demoKey5",
        "value": "[3, 4]",
        "operation": ">",
        "type": "[number]",
        "description": ""
      },
      {
        "key": "demoKey6",
        "value": "[3, 4]",
        "operation": "<",
        "type": "[number]",
        "description": ""
      },
      {
        "key": "demoKey7",
        "value": "[true, false]",
        "operation": "",
        "type": "[boolean]",
        "description": ""
      },
      {
        "key": "demoKey8[]",
        "value": "true",
        "operation": "",
        "type": "boolean",
        "description": ""
      },
      {
        "key": "demoKey8[]",
        "value": "false",
        "operation": "",
        "type": "boolean",
        "description": ""
      }
    ]
  }
}