{
  "name": "VerifyOptionalArrayNumbersIndex002",
  "description": "",
  "status": "visible",
  "tc": {
    "settings": [],
    "actors": [
      {
        "name": "Actors-global.engine.actors.verify.optional.VerifyOptionalArrayNumbersIndexLocal",
        "type": "local",
        "phase": "exec",
        "execution": "",
        "src": "",
        "dst": "",
        "srv": "",
        "testData": "",
        "verification": ""
      }
    ],
    "testDataTestCases": [
      {
        "key": "optional[]",
        "value": "[1, 2]",
        "description": ""
      },
      {
        "key": "optional[]",
        "value": "[3, 4]",
        "description": ""
      }
    ],
    "testDataIteration": [],
    "verificationTestCases": [
      {
        "key": "optional",
        "value": "[[1, 2], [3, 4]]",
        "operation": "",
        "type": "[[number]]",
        "description": ""
      }
    ]
  }
}