{
  "name": "DemoPhases001",
  "description": "",
  "status": "visible",
  "tc": {
    "settings": [],
    "actors": [
      {
        "name": "Actors-global.demo.actor-phase-type.DemoPhaseTypeLocal",
        "type": "local",
        "phase": "pre",
        "execution": "",
        "src": "",
        "dst": "",
        "srv": "",
        "testData": ""
      },
      {
        "name": "Actors-global.demo.actor-phase-type.DemoPhaseTypeLocal",
        "type": "local",
        "phase": "exec",
        "execution": "",
        "src": "",
        "dst": "",
        "srv": "",
        "testData": ""
      },
      {
        "name": "Actors-global.demo.actor-phase-type.DemoPhaseTypeLocal",
        "type": "local",
        "phase": "post",
        "execution": "",
        "src": "",
        "dst": "",
        "srv": "",
        "testData": ""
      }
    ],
    "testDataTestCases": [],
    "testDataIteration": [],
    "verificationTestCases": []
  }
}