{
  "name": "DocActorApiGetTestDataStringsB",
  "description": "",
  "status": "visible",
  "tc": {
    "settings": [],
    "actors": [
      {
        "name": "Actors-global.doc.testData.getStrings.GetTestDataStringsBOrig",
        "type": "orig",
        "phase": "",
        "execution": "",
        "src": "",
        "dst": "",
        "srv": "",
        "testData": "",
        "verification": ""
      }
    ],
    "testDataTestCases": [
      {
        "key": "demoKey1[]",
        "value": "Hello",
        "description": ""
      },
      {
        "key": "demoKey1[]",
        "value": "Hi",
        "description": ""
      },
      {
        "key": "demoKey2",
        "value": "[\"Hello\", \"Good day\"]",
        "description": ""
      },
      {
        "key": "demoKeyObject",
        "value": "DAY",
        "description": ""
      }
    ],
    "testDataIteration": [],
    "verificationTestCases": []
  }
}