{
  "name": "DemoPhases002",
  "description": "",
  "status": "visible",
  "tc": {
    "settings": [],
    "actors": [
      {
        "name": "Actors-global.stack.stacks.http.HttpGetOkOrig",
        "node": "",
        "type": "orig",
        "phase": "pre",
        "execution": "",
        "src": "testSrc1",
        "dst": "testSrv1",
        "srv": "",
        "testData": "",
        "verification": ""
      },
      {
        "name": "Actors-global.stack.stacks.http.HttpGetOkTerm",
        "node": "",
        "type": "term",
        "phase": "pre",
        "execution": "",
        "src": "",
        "dst": "",
        "srv": "testSrv1",
        "testData": "",
        "verification": ""
      },
      {
        "name": "Actors-global.stack.stacks.http.HttpGetOkOrig",
        "node": "",
        "type": "orig",
        "phase": "pre",
        "execution": "serial",
        "src": "testSrc1",
        "dst": "testSrv1",
        "srv": "",
        "testData": "",
        "verification": ""
      },
      {
        "name": "Actors-global.stack.stacks.http.HttpGetOkTerm",
        "node": "",
        "type": "term",
        "phase": "pre",
        "execution": "parallel",
        "src": "",
        "dst": "",
        "srv": "testSrv1",
        "testData": "",
        "verification": ""
      },
      {
        "name": "Actors-global.stack.stacks.diameter.CapabilitiesExchangeOrig",
        "node": "",
        "type": "orig",
        "phase": "exec",
        "execution": "",
        "src": "testSrc1",
        "dst": "testSrv1",
        "srv": "",
        "testData": "",
        "verification": ""
      },
      {
        "name": "Actors-global.stack.stacks.diameter.CapabilitiesExchangeTerm",
        "node": "",
        "type": "term",
        "phase": "exec",
        "execution": "",
        "src": "",
        "dst": "",
        "srv": "testSrv1",
        "testData": "",
        "verification": ""
      },
      {
        "name": "Actors-global.stack.stacks.someip.SomeIpConnectionBasicOrig",
        "node": "",
        "type": "orig",
        "phase": "post",
        "execution": "",
        "src": "",
        "dst": "testSrv1",
        "srv": "",
        "testData": "",
        "verification": ""
      },
      {
        "name": "Actors-global.stack.stacks.someip.SomeIpConnectionBasicTerm",
        "node": "",
        "type": "term",
        "phase": "post",
        "execution": "",
        "src": "",
        "dst": "",
        "srv": "testSrv1",
        "testData": "",
        "verification": ""
      }
    ],
    "testDataTestCases": [
      {
        "key": "content-name",
        "value": "pettersson",
        "description": ""
      }
    ],
    "testDataIteration": [],
    "verificationTestCases": [
      {
        "key": "content-name",
        "value": "pettersson",
        "operation": "",
        "type": "",
        "description": ""
      }
    ]
  }
}