{
  "name": "DemoAll",
  "description": "",
  "status": "visible",
  "ts": {
    "abstractions": [
      {
        "name": "ts.Actor.Demo.DemoStack",
        "execution": "",
        "iterations": ""
      },
      {
        "name": "ts.Actor.Demo.DemoMobileBrowsing",
        "execution": "",
        "iterations": ""
      }
    ]
  }
}