{
  "name": "SendDefragOrigProxyTerm0001",
  "description": "",
  "status": "visible",
  "tc": {
    "settings": [],
    "actors": [
      {
        "name": "Actors-global.stack.stacks.socket.SocketReceiveLineDefragOrig",
        "type": "orig",
        "phase": "",
        "execution": "",
        "src": "",
        "dst": "testSrv1",
        "srv": "",
        "testData": ""
      },
      {
        "name": "Actors-global.stack.stacks.socket.SocketReceiveLineDefragProxy",
        "type": "proxy",
        "phase": "",
        "execution": "",
        "src": "",
        "dst": "testSrv2",
        "srv": "testSrv1",
        "testData": ""
      },
      {
        "name": "Actors-global.stack.stacks.socket.SocketReceiveLineDefragTerm",
        "type": "term",
        "phase": "",
        "execution": "",
        "src": "",
        "dst": "",
        "srv": "testSrv2",
        "testData": ""
      }
    ],
    "testDataTestCases": [
      {
        "key": "msgParts[]",
        "value": "[\"Hello \", \"World\", \"\\r\\n\"]",
        "description": ""
      },
      {
        "key": "msgDelays[]",
        "value": "[-1, -1, -1]",
        "description": ""
      }
    ],
    "testDataIteration": [],
    "verificationTestCases": []
  }
}