{
  "name": "TestDataSuccessArrayStrings0001",
  "description": "",
  "status": "visible",
  "tc": {
    "settings": [],
    "actors": [
      {
        "name": "Actors-global.engine.actors.test-data.TestDataSuccessLocal",
        "type": "local",
        "phase": "",
        "execution": "",
        "src": "",
        "dst": "",
        "srv": "",
        "testData": ""
      }
    ],
    "testDataTestCases": [
      {
        "key": "method",
        "value": "getTestDataArrayStrings",
        "description": ""
      },
      {
        "key": "data[]",
        "value": "[\"hello world 1\", \"hello world 2\"]",
        "description": ""
      },
      {
        "key": "data[]",
        "value": "[\"hello world 3\", \"hello world 4\"]",
        "description": ""
      }
    ],
    "testDataIteration": [],
    "verificationTestCases": [
      {
        "key": "testData[]",
        "value": "[\"hello world 1\", \"hello world 2\"]",
        "operation": "",
        "type": "[string]",
        "description": ""
      },
      {
        "key": "testData[]",
        "value": "[\"hello world 3\", \"hello world 4\"]",
        "operation": "",
        "type": "[string]",
        "description": ""
      }
    ]
  }
}